\relax 
\providecommand\hyper@newdestlabel[2]{}
\providecommand\HyperFirstAtBeginDocument{\AtBeginDocument}
\HyperFirstAtBeginDocument{\ifx\hyper@anchor\@undefined
\global\let\oldcontentsline\contentsline
\gdef\contentsline#1#2#3#4{\oldcontentsline{#1}{#2}{#3}}
\global\let\oldnewlabel\newlabel
\gdef\newlabel#1#2{\newlabelxx{#1}#2}
\gdef\newlabelxx#1#2#3#4#5#6{\oldnewlabel{#1}{{#2}{#3}}}
\AtEndDocument{\ifx\hyper@anchor\@undefined
\let\contentsline\oldcontentsline
\let\newlabel\oldnewlabel
\fi}
\fi}
\global\let\hyper@last\relax 
\gdef\HyperFirstAtBeginDocument#1{#1}
\providecommand*\HyPL@Entry[1]{}
\HyPL@Entry{0<</P(0)>>}
\providecommand \oddpage@label [2]{}
\@writefile{nav}{\headcommand {\slideentry {0}{0}{1}{1/1}{}{0}}}
\@writefile{nav}{\headcommand {\beamer@framepages {1}{1}}}
\HyPL@Entry{1<</P(1)>>}
\@writefile{nav}{\headcommand {\slideentry {0}{0}{2}{2/2}{}{0}}}
\@writefile{nav}{\headcommand {\beamer@framepages {2}{2}}}
\@writefile{toc}{\beamer@sectionintoc {1}{Setting}{3}{0}{1}}
\@writefile{nav}{\headcommand {\beamer@sectionpages {1}{2}}}
\@writefile{nav}{\headcommand {\beamer@subsectionpages {1}{2}}}
\@writefile{nav}{\headcommand {\sectionentry {1}{Setting}{3}{Setting}{0}}}
\@writefile{nav}{\headcommand {\slideentry {1}{0}{1}{3/3}{}{0}}}
\@writefile{nav}{\headcommand {\beamer@framepages {3}{3}}}
\HyPL@Entry{3<</P(2)>>}
\@writefile{toc}{\beamer@subsectionintoc {1}{1}{Information Aggregation in Spontaneous Localized Settings}{4}{0}{1}}
\@writefile{nav}{\headcommand {\beamer@subsectionpages {3}{3}}}
\@writefile{nav}{\headcommand {\beamer@subsectionentry {0}{1}{1}{4}{Information Aggregation in Spontaneous Localized Settings}}}
\@writefile{nav}{\headcommand {\slideentry {1}{1}{1}{4/4}{Information Aggregation in Spontaneous Localized Settings}{0}}}
\@writefile{nav}{\headcommand {\beamer@framepages {4}{4}}}
\@writefile{toc}{\beamer@sectionintoc {2}{Fairness}{5}{0}{2}}
\@writefile{nav}{\headcommand {\beamer@sectionpages {3}{4}}}
\@writefile{nav}{\headcommand {\beamer@subsectionpages {4}{4}}}
\@writefile{nav}{\headcommand {\sectionentry {2}{Fairness}{5}{Fairness}{0}}}
\@writefile{nav}{\headcommand {\slideentry {2}{0}{1}{5/5}{}{0}}}
\@writefile{nav}{\headcommand {\beamer@framepages {5}{5}}}
\HyPL@Entry{5<</P(3)>>}
\@writefile{toc}{\beamer@subsectionintoc {2}{1}{Selective Fairness}{6}{0}{2}}
\@writefile{nav}{\headcommand {\beamer@subsectionpages {5}{5}}}
\@writefile{nav}{\headcommand {\beamer@subsectionentry {0}{2}{1}{6}{Selective Fairness}}}
\@writefile{nav}{\headcommand {\slideentry {2}{1}{1}{6/6}{Selective Fairness}{0}}}
\@writefile{nav}{\headcommand {\beamer@framepages {6}{6}}}
\HyPL@Entry{6<</P(4)>>}
\@writefile{nav}{\headcommand {\slideentry {2}{1}{2}{7/7}{Selective Fairness}{0}}}
\@writefile{nav}{\headcommand {\beamer@framepages {7}{7}}}
\HyPL@Entry{7<</P(5)>>}
\@writefile{toc}{\beamer@subsubsectionintoc {2}{1}{1}{Strength of Report}{8}{0}{2}}
\@writefile{nav}{\headcommand {\beamer@subsubsectionentry {0}{2}{1}{1}{8}{Strength of Report}}}
\@writefile{nav}{\headcommand {\slideentry {2}{1}{3}{8/8}{Selective Fairness}{0}}}
\@writefile{nav}{\headcommand {\beamer@framepages {8}{8}}}
\HyPL@Entry{8<</P(6)>>}
\@writefile{toc}{\beamer@subsectionintoc {2}{2}{Cumulative Fairness}{9}{0}{2}}
\@writefile{nav}{\headcommand {\beamer@subsectionpages {6}{8}}}
\@writefile{nav}{\headcommand {\beamer@subsectionentry {0}{2}{2}{9}{Cumulative Fairness}}}
\@writefile{nav}{\headcommand {\slideentry {2}{2}{1}{9/9}{Cumulative Fairness}{0}}}
\@writefile{nav}{\headcommand {\beamer@framepages {9}{9}}}
\HyPL@Entry{9<</P(7)>>}
\@writefile{nav}{\headcommand {\slideentry {2}{2}{2}{10/12}{Cumulative Fairness}{0}}}
\@writefile{nav}{\headcommand {\beamer@framepages {10}{12}}}
\HyPL@Entry{12<</P(8)>>}
\@writefile{nav}{\headcommand {\slideentry {2}{2}{3}{13/13}{Cumulative Fairness}{0}}}
\@writefile{nav}{\headcommand {\beamer@framepages {13}{13}}}
\HyPL@Entry{13<</P(9)>>}
\@writefile{toc}{\beamer@subsubsectionintoc {2}{2}{1}{Consistency Score}{14}{0}{2}}
\@writefile{nav}{\headcommand {\beamer@subsubsectionentry {0}{2}{2}{1}{14}{Consistency Score}}}
\@writefile{nav}{\headcommand {\slideentry {2}{2}{4}{14/14}{Cumulative Fairness}{0}}}
\@writefile{nav}{\headcommand {\beamer@framepages {14}{14}}}
\HyPL@Entry{14<</P(10)>>}
\@writefile{nav}{\headcommand {\slideentry {2}{2}{4}{14/15}{Cumulative Fairness}{0}}}
\@writefile{nav}{\headcommand {\beamer@framepages {14}{15}}}
\@writefile{toc}{\beamer@sectionintoc {3}{Collusion Resistivity}{16}{0}{3}}
\@writefile{nav}{\headcommand {\beamer@sectionpages {5}{15}}}
\@writefile{nav}{\headcommand {\beamer@subsectionpages {9}{15}}}
\@writefile{nav}{\headcommand {\sectionentry {3}{Collusion Resistivity}{16}{Collusion Resistivity}{0}}}
\@writefile{nav}{\headcommand {\slideentry {3}{0}{1}{16/16}{}{0}}}
\@writefile{nav}{\headcommand {\beamer@framepages {16}{16}}}
\HyPL@Entry{16<</P(11)>>}
\@writefile{nav}{\headcommand {\slideentry {3}{0}{2}{17/18}{}{0}}}
\@writefile{nav}{\headcommand {\beamer@framepages {17}{18}}}
\HyPL@Entry{18<</P(12)>>}
\@writefile{toc}{\beamer@subsectionintoc {3}{1}{Reliability Score}{19}{0}{3}}
\@writefile{nav}{\headcommand {\beamer@subsectionpages {16}{18}}}
\@writefile{nav}{\headcommand {\beamer@subsectionentry {0}{3}{1}{19}{Reliability Score}}}
\@writefile{nav}{\headcommand {\slideentry {3}{1}{1}{19/19}{Reliability Score}{0}}}
\@writefile{nav}{\headcommand {\beamer@framepages {19}{19}}}
\@writefile{toc}{\beamer@sectionintoc {4}{Location Proof}{20}{0}{4}}
\@writefile{nav}{\headcommand {\beamer@sectionpages {16}{19}}}
\@writefile{nav}{\headcommand {\beamer@subsectionpages {19}{19}}}
\@writefile{nav}{\headcommand {\sectionentry {4}{Location Proof}{20}{Location Proof}{0}}}
\@writefile{nav}{\headcommand {\slideentry {4}{0}{1}{20/20}{}{0}}}
\@writefile{nav}{\headcommand {\beamer@framepages {20}{20}}}
\HyPL@Entry{20<</P(13)>>}
\oddpage@label{1}{21}
\pgfsyspdfmark {pgfid21}{1864679}{8397773}
\oddpage@label{2}{21}
\pgfsyspdfmark {pgfid22}{2047524}{8397773}
\oddpage@label{3}{21}
\pgfsyspdfmark {pgfid23}{2230369}{8397773}
\oddpage@label{4}{21}
\pgfsyspdfmark {pgfid24}{2413214}{8397773}
\oddpage@label{5}{21}
\pgfsyspdfmark {pgfid25}{2596059}{8397773}
\oddpage@label{6}{21}
\pgfsyspdfmark {pgfid26}{2778904}{8397773}
\@writefile{nav}{\headcommand {\slideentry {4}{0}{2}{21/21}{}{0}}}
\@writefile{nav}{\headcommand {\beamer@framepages {21}{21}}}
\HyPL@Entry{21<</P(14)>>}
\@writefile{nav}{\headcommand {\slideentry {4}{0}{3}{22/22}{}{0}}}
\@writefile{nav}{\headcommand {\beamer@framepages {22}{22}}}
\@writefile{toc}{\beamer@sectionintoc {5}{Final Reward}{23}{0}{5}}
\@writefile{nav}{\headcommand {\beamer@sectionpages {20}{22}}}
\@writefile{nav}{\headcommand {\beamer@subsectionpages {20}{22}}}
\@writefile{nav}{\headcommand {\sectionentry {5}{Final Reward}{23}{Final Reward}{0}}}
\@writefile{nav}{\headcommand {\slideentry {5}{0}{1}{23/23}{}{0}}}
\@writefile{nav}{\headcommand {\beamer@framepages {23}{23}}}
\HyPL@Entry{23<</P(15)>>}
\@writefile{nav}{\headcommand {\slideentry {5}{0}{2}{24/24}{}{0}}}
\@writefile{nav}{\headcommand {\beamer@framepages {24}{24}}}
\@writefile{nav}{\headcommand {\slideentry {5}{0}{3}{25/25}{}{0}}}
\@writefile{nav}{\headcommand {\beamer@framepages {25}{25}}}
\global\@namedef{mainendframenumber}{15}
\@writefile{nav}{\headcommand {\gdef \insertmainframenumber {15}}}
\HyPL@Entry{25<</P(0)>>}
\@writefile{nav}{\headcommand {\partentry {\translate  {Appendix}}{1}}}
\@writefile{nav}{\headcommand {\beamer@partpages {1}{25}}}
\@writefile{nav}{\headcommand {\beamer@sectionpages {23}{25}}}
\@writefile{nav}{\headcommand {\beamer@subsectionpages {23}{25}}}
\@writefile{nav}{\headcommand {\beamer@appendixpages {26}}}
\@writefile{toc}{\beamer@sectionintoc {6}{Backup Slides}{26}{1}{6}}
\@writefile{nav}{\headcommand {\beamer@sectionpages {26}{25}}}
\@writefile{nav}{\headcommand {\beamer@subsectionpages {26}{25}}}
\@writefile{nav}{\headcommand {\sectionentry {6}{Backup Slides}{26}{Backup Slides}{1}}}
\@writefile{nav}{\headcommand {\slideentry {6}{0}{1}{26/26}{}{1}}}
\@writefile{nav}{\headcommand {\beamer@framepages {26}{26}}}
\HyPL@Entry{26<</P(1)>>}
\@writefile{toc}{\beamer@subsectionintoc {6}{1}{Strength Score}{27}{1}{6}}
\@writefile{nav}{\headcommand {\beamer@subsectionpages {26}{26}}}
\@writefile{nav}{\headcommand {\beamer@subsectionentry {1}{6}{1}{27}{Strength Score}}}
\newlabel{lemma:Phi}{{4}{27}{}{Doc-Start}{}}
\@writefile{snm}{\beamer@slide {lemma:Phi}{27}}
\@writefile{nav}{\headcommand {\slideentry {6}{1}{1}{27/27}{Strength Score}{1}}}
\@writefile{nav}{\headcommand {\beamer@framepages {27}{27}}}
\HyPL@Entry{27<</P(2)>>}
\@writefile{toc}{\beamer@subsectionintoc {6}{2}{Consistency Score}{28}{1}{6}}
\@writefile{nav}{\headcommand {\beamer@subsectionpages {27}{27}}}
\@writefile{nav}{\headcommand {\beamer@subsectionentry {1}{6}{2}{28}{Consistency Score}}}
\@writefile{nav}{\headcommand {\slideentry {6}{2}{1}{28/28}{Consistency Score}{1}}}
\@writefile{nav}{\headcommand {\beamer@framepages {28}{28}}}
\HyPL@Entry{28<</P(3)>>}
\newlabel{lemma:alpha}{{5}{29}{}{Doc-Start}{}}
\@writefile{snm}{\beamer@slide {lemma:alpha}{28}}
\@writefile{nav}{\headcommand {\slideentry {6}{2}{1}{28/29}{Consistency Score}{1}}}
\@writefile{nav}{\headcommand {\beamer@framepages {28}{29}}}
\HyPL@Entry{29<</P(4)>>}
\@writefile{toc}{\beamer@subsectionintoc {6}{3}{Reliability Score}{30}{1}{6}}
\@writefile{nav}{\headcommand {\beamer@subsectionpages {28}{29}}}
\@writefile{nav}{\headcommand {\beamer@subsectionentry {1}{6}{3}{30}{Reliability Score}}}
\newlabel{lemma:beta}{{6}{30}{}{Doc-Start}{}}
\@writefile{snm}{\beamer@slide {lemma:beta}{30}}
\@writefile{nav}{\headcommand {\slideentry {6}{3}{1}{30/30}{Reliability Score}{1}}}
\@writefile{nav}{\headcommand {\beamer@framepages {30}{30}}}
\@writefile{nav}{\headcommand {\beamer@partpages {26}{30}}}
\@writefile{nav}{\headcommand {\beamer@subsectionpages {30}{30}}}
\@writefile{nav}{\headcommand {\beamer@sectionpages {26}{30}}}
\@writefile{nav}{\headcommand {\beamer@documentpages {30}}}
\@writefile{nav}{\headcommand {\gdef \inserttotalframenumber {4}}}
\global\@namedef{appendixtotalframenumber}{4}
\global\@namedef{inserttotalframenumber}{15}
\@writefile{nav}{\headcommand {\gdef \inserttotalframenumber {15}}}
\@writefile{nav}{\headcommand {\gdef \appendixtotalframenumber {4}}}
